-- Merging decision tree log ---
manifest
ADDED from D:\Git_Teamproj_Share\SE_project\Todolist_login_CreateAccount\app\src\main\AndroidManifest.xml:2:1-27:12
INJECTED from D:\Git_Teamproj_Share\SE_project\Todolist_login_CreateAccount\app\src\main\AndroidManifest.xml:2:1-27:12
INJECTED from D:\Git_Teamproj_Share\SE_project\Todolist_login_CreateAccount\app\src\main\AndroidManifest.xml:2:1-27:12
INJECTED from D:\Git_Teamproj_Share\SE_project\Todolist_login_CreateAccount\app\src\main\AndroidManifest.xml:2:1-27:12
MERGED from [com.android.support:design:26.1.0] C:\Users\GongmuKim\.gradle\caches\transforms-1\files-1.1\design-26.1.0.aar\0806b495cf2558b092ddcb07b853cd06\AndroidManifest.xml:17:1-31:12
MERGED from [com.android.support:appcompat-v7:26.1.0] C:\Users\GongmuKim\.gradle\caches\transforms-1\files-1.1\appcompat-v7-26.1.0.aar\3b05a9beeac70597ab176f1a829b6b62\AndroidManifest.xml:17:1-31:12
MERGED from [com.android.support:animated-vector-drawable:26.1.0] C:\Users\GongmuKim\.gradle\caches\transforms-1\files-1.1\animated-vector-drawable-26.1.0.aar\770c9499cea87b5cca6dc009f24f4d1e\AndroidManifest.xml:17:1-28:12
MERGED from [com.android.support:support-vector-drawable:26.1.0] C:\Users\GongmuKim\.gradle\caches\transforms-1\files-1.1\support-vector-drawable-26.1.0.aar\95388aa459c6d8e2b5e8dc0b0a927603\AndroidManifest.xml:17:1-28:12
MERGED from [com.android.support:recyclerview-v7:26.1.0] C:\Users\GongmuKim\.gradle\caches\transforms-1\files-1.1\recyclerview-v7-26.1.0.aar\4171d86e5877fbbc91dbe7d95b528c60\AndroidManifest.xml:17:1-28:12
MERGED from [com.android.support:transition:26.1.0] C:\Users\GongmuKim\.gradle\caches\transforms-1\files-1.1\transition-26.1.0.aar\04a0f88a744f93da03f7602f21b25b33\AndroidManifest.xml:17:1-28:12
MERGED from [com.android.support:support-v4:26.1.0] C:\Users\GongmuKim\.gradle\caches\transforms-1\files-1.1\support-v4-26.1.0.aar\74bd95045e189699ae768d559deb9135\AndroidManifest.xml:17:1-31:12
MERGED from [com.android.support:support-media-compat:26.1.0] C:\Users\GongmuKim\.gradle\caches\transforms-1\files-1.1\support-media-compat-26.1.0.aar\81ff67a45606f70797ce3c191602e02d\AndroidManifest.xml:17:1-31:12
MERGED from [com.android.support:support-fragment:26.1.0] C:\Users\GongmuKim\.gradle\caches\transforms-1\files-1.1\support-fragment-26.1.0.aar\d5e427ed640a5026f3e033a71f2f8bed\AndroidManifest.xml:17:1-31:12
MERGED from [com.android.support:support-core-utils:26.1.0] C:\Users\GongmuKim\.gradle\caches\transforms-1\files-1.1\support-core-utils-26.1.0.aar\a8ecd74e920c4c191e777870fddacad2\AndroidManifest.xml:17:1-31:12
MERGED from [com.android.support:support-core-ui:26.1.0] C:\Users\GongmuKim\.gradle\caches\transforms-1\files-1.1\support-core-ui-26.1.0.aar\de9253691ca50f3cdd6d363c3beffb3b\AndroidManifest.xml:17:1-31:12
MERGED from [com.android.support:support-compat:26.1.0] C:\Users\GongmuKim\.gradle\caches\transforms-1\files-1.1\support-compat-26.1.0.aar\25b3573b8957702ec03edc831160ac47\AndroidManifest.xml:17:1-31:12
MERGED from [android.arch.lifecycle:runtime:1.0.0] C:\Users\GongmuKim\.gradle\caches\transforms-1\files-1.1\runtime-1.0.0.aar\136583c67d5bcf42241e4a0194fb8718\AndroidManifest.xml:17:1-30:12
INJECTED from D:\Git_Teamproj_Share\SE_project\Todolist_login_CreateAccount\app\src\main\AndroidManifest.xml:2:1-27:12
INJECTED from D:\Git_Teamproj_Share\SE_project\Todolist_login_CreateAccount\app\src\main\AndroidManifest.xml:2:1-27:12
INJECTED from D:\Git_Teamproj_Share\SE_project\Todolist_login_CreateAccount\app\src\main\AndroidManifest.xml:2:1-27:12
	package
		ADDED from D:\Git_Teamproj_Share\SE_project\Todolist_login_CreateAccount\app\src\main\AndroidManifest.xml:3:5-66
		INJECTED from D:\Git_Teamproj_Share\SE_project\Todolist_login_CreateAccount\app\src\main\AndroidManifest.xml
		INJECTED from D:\Git_Teamproj_Share\SE_project\Todolist_login_CreateAccount\app\src\main\AndroidManifest.xml
	android:versionName
		INJECTED from D:\Git_Teamproj_Share\SE_project\Todolist_login_CreateAccount\app\src\main\AndroidManifest.xml
		ADDED from D:\Git_Teamproj_Share\SE_project\Todolist_login_CreateAccount\app\src\main\AndroidManifest.xml:2:1-27:12
		INJECTED from D:\Git_Teamproj_Share\SE_project\Todolist_login_CreateAccount\app\src\main\AndroidManifest.xml
	android:versionCode
		INJECTED from D:\Git_Teamproj_Share\SE_project\Todolist_login_CreateAccount\app\src\main\AndroidManifest.xml
		ADDED from D:\Git_Teamproj_Share\SE_project\Todolist_login_CreateAccount\app\src\main\AndroidManifest.xml:2:1-27:12
		INJECTED from D:\Git_Teamproj_Share\SE_project\Todolist_login_CreateAccount\app\src\main\AndroidManifest.xml
	xmlns:android
		ADDED from D:\Git_Teamproj_Share\SE_project\Todolist_login_CreateAccount\app\src\main\AndroidManifest.xml:2:11-69
uses-permission#android.permission.GET_ACCOUNTS
ADDED from D:\Git_Teamproj_Share\SE_project\Todolist_login_CreateAccount\app\src\main\AndroidManifest.xml:5:5-71
	android:name
		ADDED from D:\Git_Teamproj_Share\SE_project\Todolist_login_CreateAccount\app\src\main\AndroidManifest.xml:5:22-68
uses-permission#android.permission.READ_PROFILE
ADDED from D:\Git_Teamproj_Share\SE_project\Todolist_login_CreateAccount\app\src\main\AndroidManifest.xml:6:5-71
	android:name
		ADDED from D:\Git_Teamproj_Share\SE_project\Todolist_login_CreateAccount\app\src\main\AndroidManifest.xml:6:22-68
uses-permission#android.permission.READ_CONTACTS
ADDED from D:\Git_Teamproj_Share\SE_project\Todolist_login_CreateAccount\app\src\main\AndroidManifest.xml:7:5-72
	android:name
		ADDED from D:\Git_Teamproj_Share\SE_project\Todolist_login_CreateAccount\app\src\main\AndroidManifest.xml:7:22-69
application
ADDED from D:\Git_Teamproj_Share\SE_project\Todolist_login_CreateAccount\app\src\main\AndroidManifest.xml:9:5-25:19
MERGED from [com.android.support:design:26.1.0] C:\Users\GongmuKim\.gradle\caches\transforms-1\files-1.1\design-26.1.0.aar\0806b495cf2558b092ddcb07b853cd06\AndroidManifest.xml:25:5-29:19
MERGED from [com.android.support:design:26.1.0] C:\Users\GongmuKim\.gradle\caches\transforms-1\files-1.1\design-26.1.0.aar\0806b495cf2558b092ddcb07b853cd06\AndroidManifest.xml:25:5-29:19
MERGED from [com.android.support:appcompat-v7:26.1.0] C:\Users\GongmuKim\.gradle\caches\transforms-1\files-1.1\appcompat-v7-26.1.0.aar\3b05a9beeac70597ab176f1a829b6b62\AndroidManifest.xml:25:5-29:19
MERGED from [com.android.support:appcompat-v7:26.1.0] C:\Users\GongmuKim\.gradle\caches\transforms-1\files-1.1\appcompat-v7-26.1.0.aar\3b05a9beeac70597ab176f1a829b6b62\AndroidManifest.xml:25:5-29:19
MERGED from [com.android.support:animated-vector-drawable:26.1.0] C:\Users\GongmuKim\.gradle\caches\transforms-1\files-1.1\animated-vector-drawable-26.1.0.aar\770c9499cea87b5cca6dc009f24f4d1e\AndroidManifest.xml:22:5-26:19
MERGED from [com.android.support:animated-vector-drawable:26.1.0] C:\Users\GongmuKim\.gradle\caches\transforms-1\files-1.1\animated-vector-drawable-26.1.0.aar\770c9499cea87b5cca6dc009f24f4d1e\AndroidManifest.xml:22:5-26:19
MERGED from [com.android.support:support-vector-drawable:26.1.0] C:\Users\GongmuKim\.gradle\caches\transforms-1\files-1.1\support-vector-drawable-26.1.0.aar\95388aa459c6d8e2b5e8dc0b0a927603\AndroidManifest.xml:22:5-26:19
MERGED from [com.android.support:support-vector-drawable:26.1.0] C:\Users\GongmuKim\.gradle\caches\transforms-1\files-1.1\support-vector-drawable-26.1.0.aar\95388aa459c6d8e2b5e8dc0b0a927603\AndroidManifest.xml:22:5-26:19
MERGED from [com.android.support:recyclerview-v7:26.1.0] C:\Users\GongmuKim\.gradle\caches\transforms-1\files-1.1\recyclerview-v7-26.1.0.aar\4171d86e5877fbbc91dbe7d95b528c60\AndroidManifest.xml:22:5-26:19
MERGED from [com.android.support:recyclerview-v7:26.1.0] C:\Users\GongmuKim\.gradle\caches\transforms-1\files-1.1\recyclerview-v7-26.1.0.aar\4171d86e5877fbbc91dbe7d95b528c60\AndroidManifest.xml:22:5-26:19
MERGED from [com.android.support:transition:26.1.0] C:\Users\GongmuKim\.gradle\caches\transforms-1\files-1.1\transition-26.1.0.aar\04a0f88a744f93da03f7602f21b25b33\AndroidManifest.xml:22:5-26:19
MERGED from [com.android.support:transition:26.1.0] C:\Users\GongmuKim\.gradle\caches\transforms-1\files-1.1\transition-26.1.0.aar\04a0f88a744f93da03f7602f21b25b33\AndroidManifest.xml:22:5-26:19
MERGED from [com.android.support:support-v4:26.1.0] C:\Users\GongmuKim\.gradle\caches\transforms-1\files-1.1\support-v4-26.1.0.aar\74bd95045e189699ae768d559deb9135\AndroidManifest.xml:25:5-29:19
MERGED from [com.android.support:support-v4:26.1.0] C:\Users\GongmuKim\.gradle\caches\transforms-1\files-1.1\support-v4-26.1.0.aar\74bd95045e189699ae768d559deb9135\AndroidManifest.xml:25:5-29:19
MERGED from [com.android.support:support-media-compat:26.1.0] C:\Users\GongmuKim\.gradle\caches\transforms-1\files-1.1\support-media-compat-26.1.0.aar\81ff67a45606f70797ce3c191602e02d\AndroidManifest.xml:25:5-29:19
MERGED from [com.android.support:support-media-compat:26.1.0] C:\Users\GongmuKim\.gradle\caches\transforms-1\files-1.1\support-media-compat-26.1.0.aar\81ff67a45606f70797ce3c191602e02d\AndroidManifest.xml:25:5-29:19
MERGED from [com.android.support:support-fragment:26.1.0] C:\Users\GongmuKim\.gradle\caches\transforms-1\files-1.1\support-fragment-26.1.0.aar\d5e427ed640a5026f3e033a71f2f8bed\AndroidManifest.xml:25:5-29:19
MERGED from [com.android.support:support-fragment:26.1.0] C:\Users\GongmuKim\.gradle\caches\transforms-1\files-1.1\support-fragment-26.1.0.aar\d5e427ed640a5026f3e033a71f2f8bed\AndroidManifest.xml:25:5-29:19
MERGED from [com.android.support:support-core-utils:26.1.0] C:\Users\GongmuKim\.gradle\caches\transforms-1\files-1.1\support-core-utils-26.1.0.aar\a8ecd74e920c4c191e777870fddacad2\AndroidManifest.xml:25:5-29:19
MERGED from [com.android.support:support-core-utils:26.1.0] C:\Users\GongmuKim\.gradle\caches\transforms-1\files-1.1\support-core-utils-26.1.0.aar\a8ecd74e920c4c191e777870fddacad2\AndroidManifest.xml:25:5-29:19
MERGED from [com.android.support:support-core-ui:26.1.0] C:\Users\GongmuKim\.gradle\caches\transforms-1\files-1.1\support-core-ui-26.1.0.aar\de9253691ca50f3cdd6d363c3beffb3b\AndroidManifest.xml:25:5-29:19
MERGED from [com.android.support:support-core-ui:26.1.0] C:\Users\GongmuKim\.gradle\caches\transforms-1\files-1.1\support-core-ui-26.1.0.aar\de9253691ca50f3cdd6d363c3beffb3b\AndroidManifest.xml:25:5-29:19
MERGED from [com.android.support:support-compat:26.1.0] C:\Users\GongmuKim\.gradle\caches\transforms-1\files-1.1\support-compat-26.1.0.aar\25b3573b8957702ec03edc831160ac47\AndroidManifest.xml:25:5-29:19
MERGED from [com.android.support:support-compat:26.1.0] C:\Users\GongmuKim\.gradle\caches\transforms-1\files-1.1\support-compat-26.1.0.aar\25b3573b8957702ec03edc831160ac47\AndroidManifest.xml:25:5-29:19
MERGED from [android.arch.lifecycle:runtime:1.0.0] C:\Users\GongmuKim\.gradle\caches\transforms-1\files-1.1\runtime-1.0.0.aar\136583c67d5bcf42241e4a0194fb8718\AndroidManifest.xml:24:5-28:19
MERGED from [android.arch.lifecycle:runtime:1.0.0] C:\Users\GongmuKim\.gradle\caches\transforms-1\files-1.1\runtime-1.0.0.aar\136583c67d5bcf42241e4a0194fb8718\AndroidManifest.xml:24:5-28:19
	android:supportsRtl
		ADDED from D:\Git_Teamproj_Share\SE_project\Todolist_login_CreateAccount\app\src\main\AndroidManifest.xml:14:9-35
	android:label
		ADDED from D:\Git_Teamproj_Share\SE_project\Todolist_login_CreateAccount\app\src\main\AndroidManifest.xml:12:9-41
	android:roundIcon
		ADDED from D:\Git_Teamproj_Share\SE_project\Todolist_login_CreateAccount\app\src\main\AndroidManifest.xml:13:9-54
	android:icon
		ADDED from D:\Git_Teamproj_Share\SE_project\Todolist_login_CreateAccount\app\src\main\AndroidManifest.xml:11:9-43
	android:allowBackup
		ADDED from D:\Git_Teamproj_Share\SE_project\Todolist_login_CreateAccount\app\src\main\AndroidManifest.xml:10:9-35
	android:theme
		ADDED from D:\Git_Teamproj_Share\SE_project\Todolist_login_CreateAccount\app\src\main\AndroidManifest.xml:15:9-40
activity#com.todolist.gongmukim.todolist_login_createaccount.LoginActivity
ADDED from D:\Git_Teamproj_Share\SE_project\Todolist_login_CreateAccount\app\src\main\AndroidManifest.xml:16:9-24:20
	android:label
		ADDED from D:\Git_Teamproj_Share\SE_project\Todolist_login_CreateAccount\app\src\main\AndroidManifest.xml:18:13-45
	android:name
		ADDED from D:\Git_Teamproj_Share\SE_project\Todolist_login_CreateAccount\app\src\main\AndroidManifest.xml:17:13-42
intent-filter#android.intent.action.MAIN+android.intent.category.LAUNCHER
ADDED from D:\Git_Teamproj_Share\SE_project\Todolist_login_CreateAccount\app\src\main\AndroidManifest.xml:19:13-23:29
action#android.intent.action.MAIN
ADDED from D:\Git_Teamproj_Share\SE_project\Todolist_login_CreateAccount\app\src\main\AndroidManifest.xml:20:17-69
	android:name
		ADDED from D:\Git_Teamproj_Share\SE_project\Todolist_login_CreateAccount\app\src\main\AndroidManifest.xml:20:25-66
category#android.intent.category.LAUNCHER
ADDED from D:\Git_Teamproj_Share\SE_project\Todolist_login_CreateAccount\app\src\main\AndroidManifest.xml:22:17-77
	android:name
		ADDED from D:\Git_Teamproj_Share\SE_project\Todolist_login_CreateAccount\app\src\main\AndroidManifest.xml:22:27-74
uses-sdk
INJECTED from D:\Git_Teamproj_Share\SE_project\Todolist_login_CreateAccount\app\src\main\AndroidManifest.xml reason: use-sdk injection requested
INJECTED from D:\Git_Teamproj_Share\SE_project\Todolist_login_CreateAccount\app\src\main\AndroidManifest.xml
INJECTED from D:\Git_Teamproj_Share\SE_project\Todolist_login_CreateAccount\app\src\main\AndroidManifest.xml
MERGED from [com.android.support:design:26.1.0] C:\Users\GongmuKim\.gradle\caches\transforms-1\files-1.1\design-26.1.0.aar\0806b495cf2558b092ddcb07b853cd06\AndroidManifest.xml:21:5-23:62
MERGED from [com.android.support:design:26.1.0] C:\Users\GongmuKim\.gradle\caches\transforms-1\files-1.1\design-26.1.0.aar\0806b495cf2558b092ddcb07b853cd06\AndroidManifest.xml:21:5-23:62
MERGED from [com.android.support:appcompat-v7:26.1.0] C:\Users\GongmuKim\.gradle\caches\transforms-1\files-1.1\appcompat-v7-26.1.0.aar\3b05a9beeac70597ab176f1a829b6b62\AndroidManifest.xml:21:5-23:78
MERGED from [com.android.support:appcompat-v7:26.1.0] C:\Users\GongmuKim\.gradle\caches\transforms-1\files-1.1\appcompat-v7-26.1.0.aar\3b05a9beeac70597ab176f1a829b6b62\AndroidManifest.xml:21:5-23:78
MERGED from [com.android.support:animated-vector-drawable:26.1.0] C:\Users\GongmuKim\.gradle\caches\transforms-1\files-1.1\animated-vector-drawable-26.1.0.aar\770c9499cea87b5cca6dc009f24f4d1e\AndroidManifest.xml:20:5-44
MERGED from [com.android.support:animated-vector-drawable:26.1.0] C:\Users\GongmuKim\.gradle\caches\transforms-1\files-1.1\animated-vector-drawable-26.1.0.aar\770c9499cea87b5cca6dc009f24f4d1e\AndroidManifest.xml:20:5-44
MERGED from [com.android.support:support-vector-drawable:26.1.0] C:\Users\GongmuKim\.gradle\caches\transforms-1\files-1.1\support-vector-drawable-26.1.0.aar\95388aa459c6d8e2b5e8dc0b0a927603\AndroidManifest.xml:20:5-44
MERGED from [com.android.support:support-vector-drawable:26.1.0] C:\Users\GongmuKim\.gradle\caches\transforms-1\files-1.1\support-vector-drawable-26.1.0.aar\95388aa459c6d8e2b5e8dc0b0a927603\AndroidManifest.xml:20:5-44
MERGED from [com.android.support:recyclerview-v7:26.1.0] C:\Users\GongmuKim\.gradle\caches\transforms-1\files-1.1\recyclerview-v7-26.1.0.aar\4171d86e5877fbbc91dbe7d95b528c60\AndroidManifest.xml:20:5-44
MERGED from [com.android.support:recyclerview-v7:26.1.0] C:\Users\GongmuKim\.gradle\caches\transforms-1\files-1.1\recyclerview-v7-26.1.0.aar\4171d86e5877fbbc91dbe7d95b528c60\AndroidManifest.xml:20:5-44
MERGED from [com.android.support:transition:26.1.0] C:\Users\GongmuKim\.gradle\caches\transforms-1\files-1.1\transition-26.1.0.aar\04a0f88a744f93da03f7602f21b25b33\AndroidManifest.xml:20:5-44
MERGED from [com.android.support:transition:26.1.0] C:\Users\GongmuKim\.gradle\caches\transforms-1\files-1.1\transition-26.1.0.aar\04a0f88a744f93da03f7602f21b25b33\AndroidManifest.xml:20:5-44
MERGED from [com.android.support:support-v4:26.1.0] C:\Users\GongmuKim\.gradle\caches\transforms-1\files-1.1\support-v4-26.1.0.aar\74bd95045e189699ae768d559deb9135\AndroidManifest.xml:21:5-23:54
MERGED from [com.android.support:support-v4:26.1.0] C:\Users\GongmuKim\.gradle\caches\transforms-1\files-1.1\support-v4-26.1.0.aar\74bd95045e189699ae768d559deb9135\AndroidManifest.xml:21:5-23:54
MERGED from [com.android.support:support-media-compat:26.1.0] C:\Users\GongmuKim\.gradle\caches\transforms-1\files-1.1\support-media-compat-26.1.0.aar\81ff67a45606f70797ce3c191602e02d\AndroidManifest.xml:21:5-23:63
MERGED from [com.android.support:support-media-compat:26.1.0] C:\Users\GongmuKim\.gradle\caches\transforms-1\files-1.1\support-media-compat-26.1.0.aar\81ff67a45606f70797ce3c191602e02d\AndroidManifest.xml:21:5-23:63
MERGED from [com.android.support:support-fragment:26.1.0] C:\Users\GongmuKim\.gradle\caches\transforms-1\files-1.1\support-fragment-26.1.0.aar\d5e427ed640a5026f3e033a71f2f8bed\AndroidManifest.xml:21:5-23:60
MERGED from [com.android.support:support-fragment:26.1.0] C:\Users\GongmuKim\.gradle\caches\transforms-1\files-1.1\support-fragment-26.1.0.aar\d5e427ed640a5026f3e033a71f2f8bed\AndroidManifest.xml:21:5-23:60
MERGED from [com.android.support:support-core-utils:26.1.0] C:\Users\GongmuKim\.gradle\caches\transforms-1\files-1.1\support-core-utils-26.1.0.aar\a8ecd74e920c4c191e777870fddacad2\AndroidManifest.xml:21:5-23:61
MERGED from [com.android.support:support-core-utils:26.1.0] C:\Users\GongmuKim\.gradle\caches\transforms-1\files-1.1\support-core-utils-26.1.0.aar\a8ecd74e920c4c191e777870fddacad2\AndroidManifest.xml:21:5-23:61
MERGED from [com.android.support:support-core-ui:26.1.0] C:\Users\GongmuKim\.gradle\caches\transforms-1\files-1.1\support-core-ui-26.1.0.aar\de9253691ca50f3cdd6d363c3beffb3b\AndroidManifest.xml:21:5-23:58
MERGED from [com.android.support:support-core-ui:26.1.0] C:\Users\GongmuKim\.gradle\caches\transforms-1\files-1.1\support-core-ui-26.1.0.aar\de9253691ca50f3cdd6d363c3beffb3b\AndroidManifest.xml:21:5-23:58
MERGED from [com.android.support:support-compat:26.1.0] C:\Users\GongmuKim\.gradle\caches\transforms-1\files-1.1\support-compat-26.1.0.aar\25b3573b8957702ec03edc831160ac47\AndroidManifest.xml:21:5-23:58
MERGED from [com.android.support:support-compat:26.1.0] C:\Users\GongmuKim\.gradle\caches\transforms-1\files-1.1\support-compat-26.1.0.aar\25b3573b8957702ec03edc831160ac47\AndroidManifest.xml:21:5-23:58
MERGED from [android.arch.lifecycle:runtime:1.0.0] C:\Users\GongmuKim\.gradle\caches\transforms-1\files-1.1\runtime-1.0.0.aar\136583c67d5bcf42241e4a0194fb8718\AndroidManifest.xml:20:5-22:41
MERGED from [android.arch.lifecycle:runtime:1.0.0] C:\Users\GongmuKim\.gradle\caches\transforms-1\files-1.1\runtime-1.0.0.aar\136583c67d5bcf42241e4a0194fb8718\AndroidManifest.xml:20:5-22:41
INJECTED from D:\Git_Teamproj_Share\SE_project\Todolist_login_CreateAccount\app\src\main\AndroidManifest.xml
INJECTED from D:\Git_Teamproj_Share\SE_project\Todolist_login_CreateAccount\app\src\main\AndroidManifest.xml
	tools:overrideLibrary
		ADDED from [com.android.support:design:26.1.0] C:\Users\GongmuKim\.gradle\caches\transforms-1\files-1.1\design-26.1.0.aar\0806b495cf2558b092ddcb07b853cd06\AndroidManifest.xml:23:9-59
	android:targetSdkVersion
		INJECTED from D:\Git_Teamproj_Share\SE_project\Todolist_login_CreateAccount\app\src\main\AndroidManifest.xml
		ADDED from D:\Git_Teamproj_Share\SE_project\Todolist_login_CreateAccount\app\src\main\AndroidManifest.xml
		INJECTED from D:\Git_Teamproj_Share\SE_project\Todolist_login_CreateAccount\app\src\main\AndroidManifest.xml
	android:minSdkVersion
		INJECTED from D:\Git_Teamproj_Share\SE_project\Todolist_login_CreateAccount\app\src\main\AndroidManifest.xml
		ADDED from D:\Git_Teamproj_Share\SE_project\Todolist_login_CreateAccount\app\src\main\AndroidManifest.xml
		INJECTED from D:\Git_Teamproj_Share\SE_project\Todolist_login_CreateAccount\app\src\main\AndroidManifest.xml
meta-data#android.support.VERSION
ADDED from [com.android.support:design:26.1.0] C:\Users\GongmuKim\.gradle\caches\transforms-1\files-1.1\design-26.1.0.aar\0806b495cf2558b092ddcb07b853cd06\AndroidManifest.xml:26:9-28:38
MERGED from [com.android.support:appcompat-v7:26.1.0] C:\Users\GongmuKim\.gradle\caches\transforms-1\files-1.1\appcompat-v7-26.1.0.aar\3b05a9beeac70597ab176f1a829b6b62\AndroidManifest.xml:26:9-28:38
MERGED from [com.android.support:appcompat-v7:26.1.0] C:\Users\GongmuKim\.gradle\caches\transforms-1\files-1.1\appcompat-v7-26.1.0.aar\3b05a9beeac70597ab176f1a829b6b62\AndroidManifest.xml:26:9-28:38
MERGED from [com.android.support:animated-vector-drawable:26.1.0] C:\Users\GongmuKim\.gradle\caches\transforms-1\files-1.1\animated-vector-drawable-26.1.0.aar\770c9499cea87b5cca6dc009f24f4d1e\AndroidManifest.xml:23:9-25:38
MERGED from [com.android.support:animated-vector-drawable:26.1.0] C:\Users\GongmuKim\.gradle\caches\transforms-1\files-1.1\animated-vector-drawable-26.1.0.aar\770c9499cea87b5cca6dc009f24f4d1e\AndroidManifest.xml:23:9-25:38
MERGED from [com.android.support:support-vector-drawable:26.1.0] C:\Users\GongmuKim\.gradle\caches\transforms-1\files-1.1\support-vector-drawable-26.1.0.aar\95388aa459c6d8e2b5e8dc0b0a927603\AndroidManifest.xml:23:9-25:38
MERGED from [com.android.support:support-vector-drawable:26.1.0] C:\Users\GongmuKim\.gradle\caches\transforms-1\files-1.1\support-vector-drawable-26.1.0.aar\95388aa459c6d8e2b5e8dc0b0a927603\AndroidManifest.xml:23:9-25:38
MERGED from [com.android.support:recyclerview-v7:26.1.0] C:\Users\GongmuKim\.gradle\caches\transforms-1\files-1.1\recyclerview-v7-26.1.0.aar\4171d86e5877fbbc91dbe7d95b528c60\AndroidManifest.xml:23:9-25:38
MERGED from [com.android.support:recyclerview-v7:26.1.0] C:\Users\GongmuKim\.gradle\caches\transforms-1\files-1.1\recyclerview-v7-26.1.0.aar\4171d86e5877fbbc91dbe7d95b528c60\AndroidManifest.xml:23:9-25:38
MERGED from [com.android.support:transition:26.1.0] C:\Users\GongmuKim\.gradle\caches\transforms-1\files-1.1\transition-26.1.0.aar\04a0f88a744f93da03f7602f21b25b33\AndroidManifest.xml:23:9-25:38
MERGED from [com.android.support:transition:26.1.0] C:\Users\GongmuKim\.gradle\caches\transforms-1\files-1.1\transition-26.1.0.aar\04a0f88a744f93da03f7602f21b25b33\AndroidManifest.xml:23:9-25:38
MERGED from [com.android.support:support-v4:26.1.0] C:\Users\GongmuKim\.gradle\caches\transforms-1\files-1.1\support-v4-26.1.0.aar\74bd95045e189699ae768d559deb9135\AndroidManifest.xml:26:9-28:38
MERGED from [com.android.support:support-v4:26.1.0] C:\Users\GongmuKim\.gradle\caches\transforms-1\files-1.1\support-v4-26.1.0.aar\74bd95045e189699ae768d559deb9135\AndroidManifest.xml:26:9-28:38
MERGED from [com.android.support:support-media-compat:26.1.0] C:\Users\GongmuKim\.gradle\caches\transforms-1\files-1.1\support-media-compat-26.1.0.aar\81ff67a45606f70797ce3c191602e02d\AndroidManifest.xml:26:9-28:38
MERGED from [com.android.support:support-media-compat:26.1.0] C:\Users\GongmuKim\.gradle\caches\transforms-1\files-1.1\support-media-compat-26.1.0.aar\81ff67a45606f70797ce3c191602e02d\AndroidManifest.xml:26:9-28:38
MERGED from [com.android.support:support-fragment:26.1.0] C:\Users\GongmuKim\.gradle\caches\transforms-1\files-1.1\support-fragment-26.1.0.aar\d5e427ed640a5026f3e033a71f2f8bed\AndroidManifest.xml:26:9-28:38
MERGED from [com.android.support:support-fragment:26.1.0] C:\Users\GongmuKim\.gradle\caches\transforms-1\files-1.1\support-fragment-26.1.0.aar\d5e427ed640a5026f3e033a71f2f8bed\AndroidManifest.xml:26:9-28:38
MERGED from [com.android.support:support-core-utils:26.1.0] C:\Users\GongmuKim\.gradle\caches\transforms-1\files-1.1\support-core-utils-26.1.0.aar\a8ecd74e920c4c191e777870fddacad2\AndroidManifest.xml:26:9-28:38
MERGED from [com.android.support:support-core-utils:26.1.0] C:\Users\GongmuKim\.gradle\caches\transforms-1\files-1.1\support-core-utils-26.1.0.aar\a8ecd74e920c4c191e777870fddacad2\AndroidManifest.xml:26:9-28:38
MERGED from [com.android.support:support-core-ui:26.1.0] C:\Users\GongmuKim\.gradle\caches\transforms-1\files-1.1\support-core-ui-26.1.0.aar\de9253691ca50f3cdd6d363c3beffb3b\AndroidManifest.xml:26:9-28:38
MERGED from [com.android.support:support-core-ui:26.1.0] C:\Users\GongmuKim\.gradle\caches\transforms-1\files-1.1\support-core-ui-26.1.0.aar\de9253691ca50f3cdd6d363c3beffb3b\AndroidManifest.xml:26:9-28:38
MERGED from [com.android.support:support-compat:26.1.0] C:\Users\GongmuKim\.gradle\caches\transforms-1\files-1.1\support-compat-26.1.0.aar\25b3573b8957702ec03edc831160ac47\AndroidManifest.xml:26:9-28:38
MERGED from [com.android.support:support-compat:26.1.0] C:\Users\GongmuKim\.gradle\caches\transforms-1\files-1.1\support-compat-26.1.0.aar\25b3573b8957702ec03edc831160ac47\AndroidManifest.xml:26:9-28:38
	android:value
		ADDED from [com.android.support:design:26.1.0] C:\Users\GongmuKim\.gradle\caches\transforms-1\files-1.1\design-26.1.0.aar\0806b495cf2558b092ddcb07b853cd06\AndroidManifest.xml:28:13-35
	android:name
		ADDED from [com.android.support:design:26.1.0] C:\Users\GongmuKim\.gradle\caches\transforms-1\files-1.1\design-26.1.0.aar\0806b495cf2558b092ddcb07b853cd06\AndroidManifest.xml:27:13-51
meta-data#android.arch.lifecycle.VERSION
ADDED from [android.arch.lifecycle:runtime:1.0.0] C:\Users\GongmuKim\.gradle\caches\transforms-1\files-1.1\runtime-1.0.0.aar\136583c67d5bcf42241e4a0194fb8718\AndroidManifest.xml:25:9-27:47
	android:value
		ADDED from [android.arch.lifecycle:runtime:1.0.0] C:\Users\GongmuKim\.gradle\caches\transforms-1\files-1.1\runtime-1.0.0.aar\136583c67d5bcf42241e4a0194fb8718\AndroidManifest.xml:27:13-44
	android:name
		ADDED from [android.arch.lifecycle:runtime:1.0.0] C:\Users\GongmuKim\.gradle\caches\transforms-1\files-1.1\runtime-1.0.0.aar\136583c67d5bcf42241e4a0194fb8718\AndroidManifest.xml:26:13-58
